(kicad_sch (version 20211123) (generator eeschema)

  (uuid 7ff05f4d-a57e-4d95-b268-c61ee1f9494e)

  (paper "A4")

  (lib_symbols
    (symbol "Connector_Generic:Conn_01x02" (pin_names (offset 1.016) hide) (in_bom yes) (on_board yes)
      (property "Reference" "J" (id 0) (at 0 2.54 0)
        (effects (font (size 1.27 1.27)))
      )
      (property "Value" "Conn_01x02" (id 1) (at 0 -5.08 0)
        (effects (font (size 1.27 1.27)))
      )
      (property "Footprint" "" (id 2) (at 0 0 0)
        (effects (font (size 1.27 1.27)) hide)
      )
      (property "Datasheet" "~" (id 3) (at 0 0 0)
        (effects (font (size 1.27 1.27)) hide)
      )
      (property "ki_keywords" "connector" (id 4) (at 0 0 0)
        (effects (font (size 1.27 1.27)) hide)
      )
      (property "ki_description" "Generic connector, single row, 01x02, script generated (kicad-library-utils/schlib/autogen/connector/)" (id 5) (at 0 0 0)
        (effects (font (size 1.27 1.27)) hide)
      )
      (property "ki_fp_filters" "Connector*:*_1x??_*" (id 6) (at 0 0 0)
        (effects (font (size 1.27 1.27)) hide)
      )
      (symbol "Conn_01x02_1_1"
        (rectangle (start -1.27 -2.413) (end 0 -2.667)
          (stroke (width 0.1524) (type default) (color 0 0 0 0))
          (fill (type none))
        )
        (rectangle (start -1.27 0.127) (end 0 -0.127)
          (stroke (width 0.1524) (type default) (color 0 0 0 0))
          (fill (type none))
        )
        (rectangle (start -1.27 1.27) (end 1.27 -3.81)
          (stroke (width 0.254) (type default) (color 0 0 0 0))
          (fill (type background))
        )
        (pin passive line (at -5.08 0 0) (length 3.81)
          (name "Pin_1" (effects (font (size 1.27 1.27))))
          (number "1" (effects (font (size 1.27 1.27))))
        )
        (pin passive line (at -5.08 -2.54 0) (length 3.81)
          (name "Pin_2" (effects (font (size 1.27 1.27))))
          (number "2" (effects (font (size 1.27 1.27))))
        )
      )
    )
    (symbol "Device:Battery_Cell" (pin_numbers hide) (pin_names (offset 0) hide) (in_bom yes) (on_board yes)
      (property "Reference" "BT" (id 0) (at 2.54 2.54 0)
        (effects (font (size 1.27 1.27)) (justify left))
      )
      (property "Value" "Battery_Cell" (id 1) (at 2.54 0 0)
        (effects (font (size 1.27 1.27)) (justify left))
      )
      (property "Footprint" "" (id 2) (at 0 1.524 90)
        (effects (font (size 1.27 1.27)) hide)
      )
      (property "Datasheet" "~" (id 3) (at 0 1.524 90)
        (effects (font (size 1.27 1.27)) hide)
      )
      (property "ki_keywords" "battery cell" (id 4) (at 0 0 0)
        (effects (font (size 1.27 1.27)) hide)
      )
      (property "ki_description" "Single-cell battery" (id 5) (at 0 0 0)
        (effects (font (size 1.27 1.27)) hide)
      )
      (symbol "Battery_Cell_0_1"
        (rectangle (start -2.286 1.778) (end 2.286 1.524)
          (stroke (width 0) (type default) (color 0 0 0 0))
          (fill (type outline))
        )
        (rectangle (start -1.5748 1.1938) (end 1.4732 0.6858)
          (stroke (width 0) (type default) (color 0 0 0 0))
          (fill (type outline))
        )
        (polyline
          (pts
            (xy 0 0.762)
            (xy 0 0)
          )
          (stroke (width 0) (type default) (color 0 0 0 0))
          (fill (type none))
        )
        (polyline
          (pts
            (xy 0 1.778)
            (xy 0 2.54)
          )
          (stroke (width 0) (type default) (color 0 0 0 0))
          (fill (type none))
        )
        (polyline
          (pts
            (xy 0.508 3.429)
            (xy 1.524 3.429)
          )
          (stroke (width 0.254) (type default) (color 0 0 0 0))
          (fill (type none))
        )
        (polyline
          (pts
            (xy 1.016 3.937)
            (xy 1.016 2.921)
          )
          (stroke (width 0.254) (type default) (color 0 0 0 0))
          (fill (type none))
        )
      )
      (symbol "Battery_Cell_1_1"
        (pin passive line (at 0 5.08 270) (length 2.54)
          (name "+" (effects (font (size 1.27 1.27))))
          (number "1" (effects (font (size 1.27 1.27))))
        )
        (pin passive line (at 0 -2.54 90) (length 2.54)
          (name "-" (effects (font (size 1.27 1.27))))
          (number "2" (effects (font (size 1.27 1.27))))
        )
      )
    )
  )


  (wire (pts (xy 105.41 57.15) (xy 90.17 57.15))
    (stroke (width 0) (type default) (color 0 0 0 0))
    (uuid 42efd367-fd62-4a74-87e6-1e6ab410b2fe)
  )
  (wire (pts (xy 90.17 49.53) (xy 105.41 49.53))
    (stroke (width 0) (type default) (color 0 0 0 0))
    (uuid a7c0b88f-1b2d-4bde-be74-db894827161e)
  )
  (wire (pts (xy 105.41 54.61) (xy 105.41 57.15))
    (stroke (width 0) (type default) (color 0 0 0 0))
    (uuid b061a38f-0dcc-4cd3-a441-db6ecf800006)
  )
  (wire (pts (xy 105.41 49.53) (xy 105.41 52.07))
    (stroke (width 0) (type default) (color 0 0 0 0))
    (uuid b4126ee1-7321-45d3-89ca-298c5b348f70)
  )

  (symbol (lib_id "Connector_Generic:Conn_01x02") (at 110.49 52.07 0) (unit 1)
    (in_bom yes) (on_board yes) (fields_autoplaced)
    (uuid 16621805-7dbc-4568-911b-4d98434a4b33)
    (property "Reference" "J1" (id 0) (at 113.03 52.0699 0)
      (effects (font (size 1.27 1.27)) (justify left))
    )
    (property "Value" "Conn_01x02" (id 1) (at 113.03 54.6099 0)
      (effects (font (size 1.27 1.27)) (justify left))
    )
    (property "Footprint" "gameboy:cr1616-tabbed" (id 2) (at 110.49 52.07 0)
      (effects (font (size 1.27 1.27)) hide)
    )
    (property "Datasheet" "~" (id 3) (at 110.49 52.07 0)
      (effects (font (size 1.27 1.27)) hide)
    )
    (pin "1" (uuid 98fa37d3-511e-4f7e-98c0-717dbfba67da))
    (pin "2" (uuid 43cb4ac4-bfcc-4466-a6a8-5d005e72a59b))
  )

  (symbol (lib_id "Device:Battery_Cell") (at 90.17 54.61 0) (unit 1)
    (in_bom yes) (on_board yes) (fields_autoplaced)
    (uuid d2cadd9f-f120-4c76-82e9-6185ab77e299)
    (property "Reference" "BT1" (id 0) (at 93.98 51.3079 0)
      (effects (font (size 1.27 1.27)) (justify left))
    )
    (property "Value" "CR1616" (id 1) (at 93.98 53.8479 0)
      (effects (font (size 1.27 1.27)) (justify left))
    )
    (property "Footprint" "keystone:BatteryHolder_Keystone_3012TR_1x16mm" (id 2) (at 90.17 53.086 90)
      (effects (font (size 1.27 1.27)) hide)
    )
    (property "Datasheet" "~" (id 3) (at 90.17 53.086 90)
      (effects (font (size 1.27 1.27)) hide)
    )
    (pin "1" (uuid 0a34b8fa-ccdd-4b23-ab53-f134325106e9))
    (pin "2" (uuid 9064fde6-d497-4c27-8f5b-506d1ddf3d35))
  )

  (sheet_instances
    (path "/" (page "1"))
  )

  (symbol_instances
    (path "/d2cadd9f-f120-4c76-82e9-6185ab77e299"
      (reference "BT1") (unit 1) (value "CR1616") (footprint "keystone:BatteryHolder_Keystone_3012TR_1x16mm")
    )
    (path "/16621805-7dbc-4568-911b-4d98434a4b33"
      (reference "J1") (unit 1) (value "Conn_01x02") (footprint "gameboy:cr1616-tabbed")
    )
  )
)
