(kicad_pcb (version 20211014) (generator pcbnew)

  (general
    (thickness 1.6)
  )

  (paper "A4")
  (layers
    (0 "F.Cu" signal)
    (31 "B.Cu" signal)
    (32 "B.Adhes" user "B.Adhesive")
    (33 "F.Adhes" user "F.Adhesive")
    (34 "B.Paste" user)
    (35 "F.Paste" user)
    (36 "B.SilkS" user "B.Silkscreen")
    (37 "F.SilkS" user "F.Silkscreen")
    (38 "B.Mask" user)
    (39 "F.Mask" user)
    (40 "Dwgs.User" user "User.Drawings")
    (41 "Cmts.User" user "User.Comments")
    (42 "Eco1.User" user "User.Eco1")
    (43 "Eco2.User" user "User.Eco2")
    (44 "Edge.Cuts" user)
    (45 "Margin" user)
    (46 "B.CrtYd" user "B.Courtyard")
    (47 "F.CrtYd" user "F.Courtyard")
    (48 "B.Fab" user)
    (49 "F.Fab" user)
    (50 "User.1" user)
    (51 "User.2" user)
    (52 "User.3" user)
    (53 "User.4" user)
    (54 "User.5" user)
    (55 "User.6" user)
    (56 "User.7" user)
    (57 "User.8" user)
    (58 "User.9" user)
  )

  (setup
    (stackup
      (layer "F.SilkS" (type "Top Silk Screen"))
      (layer "F.Paste" (type "Top Solder Paste"))
      (layer "F.Mask" (type "Top Solder Mask") (thickness 0.01))
      (layer "F.Cu" (type "copper") (thickness 0.035))
      (layer "dielectric 1" (type "core") (thickness 1.51) (material "FR4") (epsilon_r 4.5) (loss_tangent 0.02))
      (layer "B.Cu" (type "copper") (thickness 0.035))
      (layer "B.Mask" (type "Bottom Solder Mask") (thickness 0.01))
      (layer "B.Paste" (type "Bottom Solder Paste"))
      (layer "B.SilkS" (type "Bottom Silk Screen"))
      (copper_finish "None")
      (dielectric_constraints no)
    )
    (pad_to_mask_clearance 0)
    (pcbplotparams
      (layerselection 0x00010fc_ffffffff)
      (disableapertmacros false)
      (usegerberextensions false)
      (usegerberattributes true)
      (usegerberadvancedattributes true)
      (creategerberjobfile true)
      (svguseinch false)
      (svgprecision 6)
      (excludeedgelayer true)
      (plotframeref false)
      (viasonmask false)
      (mode 1)
      (useauxorigin false)
      (hpglpennumber 1)
      (hpglpenspeed 20)
      (hpglpendiameter 15.000000)
      (dxfpolygonmode true)
      (dxfimperialunits true)
      (dxfusepcbnewfont true)
      (psnegative false)
      (psa4output false)
      (plotreference true)
      (plotvalue true)
      (plotinvisibletext false)
      (sketchpadsonfab false)
      (subtractmaskfromsilk false)
      (outputformat 1)
      (mirror false)
      (drillshape 0)
      (scaleselection 1)
      (outputdirectory "gerbers/")
    )
  )

  (net 0 "")
  (net 1 "Net-(BT1-Pad1)")
  (net 2 "Net-(BT1-Pad2)")

  (footprint "keystone:BatteryHolder_Keystone_3012TR_1x16mm" (layer "F.Cu")
    (tedit 0) (tstamp 09c4bcbc-f32a-4662-aa76-6bfe91f803a8)
    (at 170 80)
    (tags "cr1616")
    (property "Sheetfile" "gb-cr1616.kicad_sch")
    (property "Sheetname" "")
    (path "/d2cadd9f-f120-4c76-82e9-6185ab77e299")
    (attr smd)
    (fp_text reference "BT1" (at -8 -6 unlocked) (layer "F.SilkS")
      (effects (font (size 1 1) (thickness 0.15)))
      (tstamp 36097425-de0b-431d-824b-053192bcbaa5)
    )
    (fp_text value "CR1616" (at 0 8 unlocked) (layer "F.Fab")
      (effects (font (size 1 1) (thickness 0.15)))
      (tstamp c8372040-3df9-4607-8918-3c19303666a0)
    )
    (fp_text user "${REFERENCE}" (at 0 -2.9) (layer "F.Fab")
      (effects (font (size 1 1) (thickness 0.15)))
      (tstamp a86f7389-cd30-4af2-a34e-4f48b770fe0c)
    )
    (fp_text user "${REFERENCE}" (at 0 2.5 unlocked) (layer "F.Fab")
      (effects (font (size 1 1) (thickness 0.15)))
      (tstamp c32dbd92-2fcb-419b-b99a-18d3a80845ce)
    )
    (fp_line (start -8.45 4) (end -8.45 -2) (layer "F.SilkS") (width 0.12) (tstamp 0f817e21-27a8-4744-8527-9fb12d9a5aa0))
    (fp_line (start -2.816667 8.95) (end 2.816667 8.95) (layer "F.SilkS") (width 0.12) (tstamp 52e1a331-c039-4d3d-95bc-9bef65e54908))
    (fp_line (start 8.45 4) (end 8.45 -2) (layer "F.SilkS") (width 0.12) (tstamp 81dcaf67-dddf-424e-bada-0b355b35b5bd))
    (fp_line (start -2.816667 8.95) (end -8.45 4) (layer "F.SilkS") (width 0.12) (tstamp af704d5a-eaac-42a2-a98d-c434311b70bc))
    (fp_line (start 2.816667 8.95) (end 8.45 4) (layer "F.SilkS") (width 0.12) (tstamp d8f4f68b-8dfd-43d4-a60d-1864a7fb25ec))
    (fp_arc (start -8.45 -2) (mid -6.870521 -5.495485) (end -3.1 -6.2) (layer "F.SilkS") (width 0.12) (tstamp 938415c0-b813-4331-a55c-6f5a9705e42c))
    (fp_arc (start 3.1 -6.2) (mid 0 -4.941407) (end -3.1 -6.2) (layer "F.SilkS") (width 0.12) (tstamp b5ecc152-3ef1-408f-87e5-c7890448b716))
    (fp_arc (start 3.1 -6.2) (mid 6.870477 -5.495429) (end 8.45 -2) (layer "F.SilkS") (width 0.12) (tstamp cee20b13-1769-4203-9660-bb699e992ab1))
    (fp_circle (center 0 0) (end 8.25 0) (layer "Dwgs.User") (width 0.15) (fill none) (tstamp daa2a4d1-e95a-408a-a707-a1e63603039a))
    (fp_line (start -9 4) (end -3 9.5) (layer "F.CrtYd") (width 0.06) (tstamp 0ba9b338-33a4-445e-ba93-4573c4480086))
    (fp_line (start 9 4) (end 9 -4) (layer "F.CrtYd") (width 0.06) (tstamp 33fd408e-3656-40ff-99d8-da1527258abf))
    (fp_line (start -6 -6.5) (end -9 -4) (layer "F.CrtYd") (width 0.06) (tstamp 48fe8f4c-35fa-4c59-a056-256a6f981f1c))
    (fp_line (start 9 -4) (end 6 -6.5) (layer "F.CrtYd") (width 0.06) (tstamp 5be45833-0181-474f-ac7d-110e2c426b64))
    (fp_line (start -9 -4) (end -9 4) (layer "F.CrtYd") (width 0.06) (tstamp 8813468f-2b4e-42e0-b166-3324c85e11d8))
    (fp_line (start -3 9.5) (end 3 9.5) (layer "F.CrtYd") (width 0.06) (tstamp 8bc9aee4-6e44-4b02-bbd3-9d09304b758d))
    (fp_line (start 3 9.5) (end 9 4) (layer "F.CrtYd") (width 0.06) (tstamp d0f6a4e0-a40f-4b43-b2cd-5dc31ee7b004))
    (fp_line (start 6 -6.5) (end -6 -6.5) (layer "F.CrtYd") (width 0.06) (tstamp f061d047-22ad-42c6-baf2-5df3e6ae1b7c))
    (pad "1" smd rect (at -10 0) (size 3.2 3.2) (layers "F.Cu" "F.Paste" "F.Mask")
      (net 1 "Net-(BT1-Pad1)") (pinfunction "+") (pintype "passive") (tstamp 6517f466-d406-4613-9a26-c6344341b912))
    (pad "1" smd rect (at 10 0) (size 3.2 3.2) (layers "F.Cu" "F.Paste" "F.Mask")
      (net 1 "Net-(BT1-Pad1)") (pinfunction "+") (pintype "passive") (tstamp f11ad08d-102f-4bef-8f69-9bd0d46bec90))
    (pad "2" smd circle (at 0 0) (size 13.5 13.5) (layers "F.Cu" "F.Mask")
      (net 2 "Net-(BT1-Pad2)") (pinfunction "-") (pintype "passive") (tstamp f0b0175f-27c7-4112-9ee6-94b1e237f980))
  )

  (footprint "gameboy:cr1616-tabbed" (layer "B.Cu")
    (tedit 0) (tstamp b59ee800-bd08-43fb-9476-0e57c6c0a7f1)
    (at 170 85 180)
    (property "Sheetfile" "gb-cr1616.kicad_sch")
    (property "Sheetname" "")
    (path "/16621805-7dbc-4568-911b-4d98434a4b33")
    (attr smd)
    (fp_text reference "J1" (at 8 6 unlocked) (layer "B.SilkS")
      (effects (font (size 1 1) (thickness 0.15)) (justify mirror))
      (tstamp 4d1924c6-28d4-4aae-addb-14c6ceea40ec)
    )
    (fp_text value "Conn_01x02" (at 0 -2 unlocked) (layer "B.Fab")
      (effects (font (size 1 1) (thickness 0.15)) (justify mirror))
      (tstamp 1d2e2840-ad53-488c-bee3-4152711a65e2)
    )
    (fp_text user "${REFERENCE}" (at 0 -3.5 unlocked) (layer "B.Fab")
      (effects (font (size 1 1) (thickness 0.15)) (justify mirror))
      (tstamp d84d3fda-d94d-42c4-9150-bcfcd0b4a052)
    )
    (fp_line (start 11 4) (end 11 5) (layer "B.SilkS") (width 0.24) (tstamp 75324887-88b3-4e77-8113-46cac781e229))
    (fp_line (start 10.5 4.5) (end 11.5 4.5) (layer "B.SilkS") (width 0.24) (tstamp db071e66-ccd5-48fc-894e-5e875c9eeb54))
    (fp_line (start -11 4.5) (end -12 4.5) (layer "B.SilkS") (width 0.24) (tstamp e17b2f00-d99d-4e30-8e4d-bbcfba622412))
    (fp_circle (center -11.5 4.5) (end -10.5 5) (layer "B.SilkS") (width 0.12) (fill none) (tstamp 7a739be3-c839-40b6-aed6-a784cd7d0758))
    (fp_circle (center 11 4.5) (end 12 5) (layer "B.SilkS") (width 0.12) (fill none) (tstamp 80bb5cab-8957-4b81-b6d8-d7d48e7d188a))
    (fp_circle (center 0 0) (end 0 8.5) (layer "B.SilkS") (width 0.12) (fill none) (tstamp d85cb2f2-0cc0-43ea-ad0f-573e2b04b7a4))
    (pad "1" thru_hole roundrect (at 11 0 180) (size 4.75 5.75) (drill 2) (layers *.Cu *.Mask) (roundrect_rratio 0.25)
      (net 1 "Net-(BT1-Pad1)") (pinfunction "Pin_1") (pintype "passive") (tstamp d4f27ce0-aac1-4d51-b1dd-d1160a7d13a4))
    (pad "2" thru_hole roundrect (at -11.5 0 180) (size 5.5 3.5) (drill 2) (layers *.Cu *.Mask) (roundrect_rratio 0.25)
      (net 2 "Net-(BT1-Pad2)") (pinfunction "Pin_2") (pintype "passive") (tstamp 9f0d5f4a-8ebb-473c-96be-21b1379a44e9))
  )

  (gr_poly
    (pts
      (xy 181.687823 74.704025)
      (xy 181.739747 74.70795)
      (xy 181.790908 74.714415)
      (xy 181.841244 74.723356)
      (xy 181.890689 74.73471)
      (xy 181.939181 74.748415)
      (xy 181.986655 74.764406)
      (xy 182.033048 74.78262)
      (xy 182.078296 74.802995)
      (xy 182.122336 74.825467)
      (xy 182.165103 74.849973)
      (xy 182.206534 74.87645)
      (xy 182.246565 74.904834)
      (xy 182.285133 74.935063)
      (xy 182.322174 74.967073)
      (xy 182.357623 75.0008)
      (xy 182.391418 75.036183)
      (xy 182.423494 75.073156)
      (xy 182.453789 75.111658)
      (xy 182.482237 75.151626)
      (xy 182.508775 75.192995)
      (xy 182.533341 75.235702)
      (xy 182.555869 75.279686)
      (xy 182.576296 75.324881)
      (xy 182.594559 75.371226)
      (xy 182.610594 75.418656)
      (xy 182.624336 75.467109)
      (xy 182.635723 75.516521)
      (xy 182.644691 75.56683)
      (xy 182.651175 75.617972)
      (xy 182.655112 75.669883)
      (xy 182.656439 75.722501)
      (xy 182.603812 75.723832)
      (xy 182.551876 75.727782)
      (xy 182.500696 75.734287)
      (xy 182.450335 75.743281)
      (xy 182.400857 75.754702)
      (xy 182.352328 75.768485)
      (xy 182.304811 75.784565)
      (xy 182.25837 75.802879)
      (xy 182.21307 75.823361)
      (xy 182.168975 75.845948)
      (xy 182.126149 75.870576)
      (xy 182.084657 75.897179)
      (xy 182.044562 75.925695)
      (xy 182.00593 75.956058)
      (xy 181.968823 75.988204)
      (xy 181.933307 76.022069)
      (xy 181.899446 76.057589)
      (xy 181.867304 76.0947)
      (xy 181.836945 76.133336)
      (xy 181.808433 76.173435)
      (xy 181.781833 76.214931)
      (xy 181.757209 76.25776)
      (xy 181.734625 76.301858)
      (xy 181.714146 76.347161)
      (xy 181.695835 76.393605)
      (xy 181.679758 76.441125)
      (xy 181.665977 76.489656)
      (xy 181.654558 76.539136)
      (xy 181.645565 76.589498)
      (xy 181.639062 76.64068)
      (xy 181.635112 76.692616)
      (xy 181.633782 76.745243)
      (xy 181.633055 76.790903)
      (xy 181.630891 76.836201)
      (xy 181.62731 76.881113)
      (xy 181.622336 76.925618)
      (xy 181.615989 76.969694)
      (xy 181.608292 77.013319)
      (xy 181.599267 77.056472)
      (xy 181.588936 77.099129)
      (xy 181.564444 77.182871)
      (xy 181.534991 77.264369)
      (xy 181.500753 77.343447)
      (xy 181.461906 77.41993)
      (xy 181.418627 77.493641)
      (xy 181.371091 77.564405)
      (xy 181.319473 77.632046)
      (xy 181.263951 77.696388)
      (xy 181.2047 77.757255)
      (xy 181.141896 77.81447)
      (xy 181.075714 77.867859)
      (xy 181.006331 77.917245)
      (xy 180.567239 76.860979)
      (xy 180.597239 76.818004)
      (xy 180.631313 76.767369)
      (xy 180.663481 76.715802)
      (xy 180.693728 76.663352)
      (xy 180.722036 76.610067)
      (xy 180.74839 76.555998)
      (xy 180.772772 76.501191)
      (xy 180.795165 76.445697)
      (xy 180.815553 76.389565)
      (xy 180.833919 76.332842)
      (xy 180.850247 76.275579)
      (xy 180.86452 76.217824)
      (xy 180.876721 76.159626)
      (xy 180.886833 76.101033)
      (xy 180.89484 76.042096)
      (xy 180.900724 75.982862)
      (xy 180.90447 75.92338)
      (xy 180.906037 75.867566)
      (xy 180.905737 75.811767)
      (xy 180.903581 75.756031)
      (xy 180.89958 75.700405)
      (xy 180.893745 75.644937)
      (xy 180.886087 75.589673)
      (xy 180.876617 75.534661)
      (xy 180.865345 75.479948)
      (xy 180.852283 75.425581)
      (xy 180.837441 75.371608)
      (xy 180.82083 75.318076)
      (xy 180.802461 75.265032)
      (xy 180.782345 75.212523)
      (xy 180.760493 75.160596)
      (xy 180.736916 75.109299)
      (xy 180.711624 75.05868)
      (xy 180.758276 75.018206)
      (xy 180.806741 74.979834)
      (xy 180.856946 74.943635)
      (xy 180.90882 74.909679)
      (xy 180.96229 74.878036)
      (xy 181.017284 74.848776)
      (xy 181.073731 74.82197)
      (xy 181.131557 74.797687)
      (xy 181.190692 74.775998)
      (xy 181.251062 74.756974)
      (xy 181.312596 74.740683)
      (xy 181.375222 74.727197)
      (xy 181.438867 74.716586)
      (xy 181.50346 74.70892)
      (xy 181.568928 74.704268)
      (xy 181.6352 74.702702)
    ) (layer "F.SilkS") (width 0.002) (fill solid) (tstamp 2922d74f-867d-45f8-9730-8e20dbd5ff1b))
  (gr_poly
    (pts
      (xy 179.223038 73.402446)
      (xy 179.272575 73.440666)
      (xy 179.305832 73.471291)
      (xy 179.343107 73.510416)
      (xy 179.38317 73.558662)
      (xy 179.42479 73.616646)
      (xy 179.466736 73.684987)
      (xy 179.50778 73.764304)
      (xy 179.54669 73.855216)
      (xy 179.582235 73.958341)
      (xy 179.613186 74.074299)
      (xy 179.626554 74.137283)
      (xy 179.638312 74.203707)
      (xy 179.648306 74.273649)
      (xy 179.656382 74.347185)
      (xy 179.662387 74.424393)
      (xy 179.666166 74.505351)
      (xy 179.738119 74.532199)
      (xy 179.807827 74.56272)
      (xy 179.875215 74.596766)
      (xy 179.940205 74.634191)
      (xy 180.002723 74.674849)
      (xy 180.062691 74.718594)
      (xy 180.120034 74.76528)
      (xy 180.174674 74.814759)
      (xy 180.226535 74.866885)
      (xy 180.275542 74.921513)
      (xy 180.321617 74.978496)
      (xy 180.364685 75.037687)
      (xy 180.404669 75.09894)
      (xy 180.441493 75.162109)
      (xy 180.47508 75.227047)
      (xy 180.505354 75.293608)
      (xy 180.536468 75.373438)
      (xy 180.562811 75.455054)
      (xy 180.58426 75.538221)
      (xy 180.600692 75.622704)
      (xy 180.611984 75.708269)
      (xy 180.618015 75.79468)
      (xy 180.618659 75.881701)
      (xy 180.613796 75.969099)
      (xy 180.603302 76.056637)
      (xy 180.587055 76.14408)
      (xy 180.564931 76.231194)
      (xy 180.536808 76.317743)
      (xy 180.502562 76.403492)
      (xy 180.462072 76.488206)
      (xy 180.415214 76.571649)
      (xy 180.361865 76.653588)
      (xy 180.241702 76.825726)
      (xy 180.372371 77.140012)
      (xy 180.793609 78.153369)
      (xy 180.354891 78.153369)
      (xy 179.800278 77.177442)
      (xy 179.989526 78.153369)
      (xy 179.597382 78.153369)
      (xy 179.029194 76.99187)
      (xy 179.032956 77.026371)
      (xy 179.034927 77.06102)
      (xy 179.035103 77.095743)
      (xy 179.033476 77.130464)
      (xy 179.030041 77.165106)
      (xy 179.024792 77.199595)
      (xy 179.017723 77.233853)
      (xy 179.008828 77.267806)
      (xy 178.998101 77.301378)
      (xy 178.985537 77.334492)
      (xy 178.971129 77.367073)
      (xy 178.954871 77.399046)
      (xy 178.936757 77.430333)
      (xy 178.916783 77.46086)
      (xy 178.89494 77.490551)
      (xy 178.871224 77.519329)
      (xy 178.704784 77.710299)
      (xy 179.108256 77.710299)
      (xy 179.297426 78.153369)
      (xy 177.738455 78.153369)
      (xy 177.735823 78.150602)
      (xy 177.733206 78.147813)
      (xy 177.727953 78.142197)
      (xy 177.687122 78.096106)
      (xy 177.649083 78.048517)
      (xy 177.613831 77.999538)
      (xy 177.581363 77.949274)
      (xy 177.551675 77.897831)
      (xy 177.524763 77.845316)
      (xy 177.500623 77.791835)
      (xy 177.479253 77.737494)
      (xy 177.460647 77.6824)
      (xy 177.444803 77.626658)
      (xy 177.431717 77.570375)
      (xy 177.421384 77.513657)
      (xy 177.413802 77.456611)
      (xy 177.408966 77.399341)
      (xy 177.406874 77.341956)
      (xy 177.40752 77.28456)
      (xy 177.410902 77.22726)
      (xy 177.417016 77.170163)
      (xy 177.425857 77.113374)
      (xy 177.437423 77.057)
      (xy 177.45171 77.001146)
      (xy 177.468713 76.94592)
      (xy 177.48843 76.891427)
      (xy 177.510856 76.837773)
      (xy 177.535988 76.785066)
      (xy 177.563822 76.73341)
      (xy 177.594354 76.682912)
      (xy 177.627581 76.633679)
      (xy 177.663499 76.585816)
      (xy 177.702104 76.53943)
      (xy 177.743392 76.494627)
      (xy 177.78736 76.451513)
      (xy 178.796517 75.510916)
      (xy 178.396177 75.510916)
      (xy 178.369682 75.510246)
      (xy 178.343534 75.508257)
      (xy 178.317766 75.504982)
      (xy 178.29241 75.500453)
      (xy 178.267499 75.494702)
      (xy 178.243064 75.487763)
      (xy 178.219139 75.479666)
      (xy 178.195756 75.470445)
      (xy 178.172947 75.460132)
      (xy 178.150745 75.448759)
      (xy 178.129181 75.436359)
      (xy 178.108288 75.422964)
      (xy 178.088099 75.408606)
      (xy 178.068646 75.393319)
      (xy 178.049961 75.377133)
      (xy 178.032077 75.360082)
      (xy 178.015027 75.342198)
      (xy 177.998841 75.323513)
      (xy 177.983553 75.30406)
      (xy 177.969196 75.283871)
      (xy 177.955801 75.262978)
      (xy 177.943401 75.241414)
      (xy 177.932029 75.219211)
      (xy 177.921716 75.196402)
      (xy 177.912495 75.173019)
      (xy 177.904398 75.149094)
      (xy 177.897459 75.124659)
      (xy 177.891708 75.099748)
      (xy 177.887179 75.074392)
      (xy 177.883904 75.048624)
      (xy 177.881915 75.022476)
      (xy 177.881245 74.99598)
      (xy 178.295018 74.99598)
      (xy 178.305883 74.953494)
      (xy 178.317282 74.918041)
      (xy 178.873552 74.918041)
      (xy 178.87381 74.928231)
      (xy 178.874575 74.938288)
      (xy 178.875834 74.948198)
      (xy 178.877576 74.95795)
      (xy 178.879787 74.96753)
      (xy 178.882456 74.976927)
      (xy 178.885569 74.986128)
      (xy 178.889115 74.995121)
      (xy 178.893081 75.003892)
      (xy 178.897454 75.012431)
      (xy 178.902222 75.020724)
      (xy 178.907373 75.028758)
      (xy 178.912895 75.036522)
      (xy 178.918773 75.044003)
      (xy 178.924998 75.051188)
      (xy 178.931555 75.058065)
      (xy 178.938432 75.064622)
      (xy 178.945618 75.070846)
      (xy 178.953099 75.076725)
      (xy 178.960863 75.082246)
      (xy 178.968897 75.087397)
      (xy 178.97719 75.092165)
      (xy 178.985729 75.096538)
      (xy 178.994501 75.100504)
      (xy 179.003493 75.10405)
      (xy 179.012694 75.107163)
      (xy 179.022092 75.109831)
      (xy 179.031672 75.112043)
      (xy 179.041424 75.113784)
      (xy 179.051334 75.115043)
      (xy 179.061391 75.115808)
      (xy 179.071581 75.116066)
      (xy 179.081777 75.115808)
      (xy 179.09184 75.115043)
      (xy 179.101756 75.113784)
      (xy 179.111512 75.112043)
      (xy 179.121098 75.109831)
      (xy 179.130499 75.107163)
      (xy 179.139704 75.10405)
      (xy 179.1487 75.100504)
      (xy 179.157475 75.096538)
      (xy 179.166017 75.092165)
      (xy 179.174312 75.087397)
      (xy 179.182349 75.082246)
      (xy 179.190115 75.076725)
      (xy 179.197598 75.070846)
      (xy 179.204785 75.064622)
      (xy 179.211663 75.058065)
      (xy 179.218221 75.051188)
      (xy 179.224447 75.044003)
      (xy 179.230326 75.036522)
      (xy 179.235848 75.028758)
      (xy 179.240999 75.020724)
      (xy 179.245768 75.012431)
      (xy 179.250141 75.003893)
      (xy 179.254107 74.995121)
      (xy 179.257653 74.986128)
      (xy 179.260766 74.976927)
      (xy 179.263435 74.96753)
      (xy 179.265646 74.95795)
      (xy 179.267388 74.948198)
      (xy 179.268647 74.938288)
      (xy 179.269412 74.928231)
      (xy 179.269669 74.918041)
      (xy 179.269412 74.907845)
      (xy 179.268647 74.897783)
      (xy 179.267388 74.887867)
      (xy 179.265646 74.878111)
      (xy 179.263435 74.868526)
      (xy 179.260766 74.859124)
      (xy 179.257653 74.84992)
      (xy 179.254107 74.840923)
      (xy 179.250141 74.832148)
      (xy 179.245768 74.823607)
      (xy 179.240999 74.815312)
      (xy 179.235848 74.807275)
      (xy 179.230326 74.799509)
      (xy 179.224447 74.792026)
      (xy 179.218221 74.784839)
      (xy 179.211663 74.77796)
      (xy 179.204785 74.771402)
      (xy 179.197598 74.765177)
      (xy 179.190115 74.759297)
      (xy 179.182349 74.753775)
      (xy 179.174312 74.748624)
      (xy 179.166017 74.743855)
      (xy 179.157475 74.739481)
      (xy 179.1487 74.735515)
      (xy 179.139704 74.731969)
      (xy 179.130499 74.728856)
      (xy 179.121098 74.726187)
      (xy 179.111512 74.723976)
      (xy 179.101756 74.722235)
      (xy 179.09184 74.720975)
      (xy 179.081777 74.720211)
      (xy 179.071581 74.719953)
      (xy 179.061391 74.720211)
      (xy 179.051334 74.720975)
      (xy 179.041424 74.722235)
      (xy 179.031672 74.723976)
      (xy 179.022092 74.726187)
      (xy 179.012694 74.728856)
      (xy 179.003493 74.731969)
      (xy 178.994501 74.735515)
      (xy 178.985729 74.739481)
      (xy 178.97719 74.743855)
      (xy 178.968897 74.748624)
      (xy 178.960863 74.753775)
      (xy 178.953099 74.759297)
      (xy 178.945618 74.765177)
      (xy 178.938432 74.771402)
      (xy 178.931555 74.77796)
      (xy 178.924998 74.784839)
      (xy 178.918773 74.792026)
      (xy 178.912895 74.799509)
      (xy 178.907373 74.807275)
      (xy 178.902222 74.815312)
      (xy 178.897454 74.823607)
      (xy 178.893081 74.832148)
      (xy 178.889115 74.840923)
      (xy 178.885569 74.849919)
      (xy 178.882456 74.859124)
      (xy 178.879787 74.868526)
      (xy 178.877576 74.878111)
      (xy 178.875834 74.887867)
      (xy 178.874575 74.897783)
      (xy 178.87381 74.907845)
      (xy 178.873552 74.918041)
      (xy 178.317282 74.918041)
      (xy 178.319207 74.912053)
      (xy 178.334909 74.871739)
      (xy 178.352905 74.832634)
      (xy 178.373111 74.794823)
      (xy 178.395445 74.758387)
      (xy 178.419823 74.723409)
      (xy 178.446161 74.689972)
      (xy 178.474377 74.658159)
      (xy 178.504387 74.628052)
      (xy 178.536107 74.599734)
      (xy 178.569456 74.573288)
      (xy 178.604348 74.548796)
      (xy 178.640702 74.526341)
      (xy 178.678433 74.506007)
      (xy 178.717459 74.487874)
      (xy 178.717459 73.540077)
      (xy 178.732647 73.549474)
      (xy 178.773097 73.580238)
      (xy 178.8004 73.604838)
      (xy 178.831144 73.636226)
      (xy 178.864369 73.674884)
      (xy 178.899119 73.721295)
      (xy 178.934433 73.77594)
      (xy 178.969355 73.839301)
      (xy 179.002925 73.911862)
      (xy 179.034184 73.994104)
      (xy 179.062176 74.086509)
      (xy 179.08594 74.189559)
      (xy 179.095938 74.245227)
      (xy 179.104519 74.303737)
      (xy 179.111565 74.36515)
      (xy 179.116955 74.429525)
      (xy 179.204338 74.429525)
      (xy 179.204338 73.390806)
    ) (layer "F.SilkS") (width 0.002) (fill solid) (tstamp 3492216b-4b55-4bba-80ef-841e9bd649ef))
  (gr_line (start 185 78) (end 185 89) (layer "Edge.Cuts") (width 0.2) (tstamp 030f85f5-7d0c-40f6-943c-4686aa3370e6))
  (gr_line (start 156 78) (end 160 73) (layer "Edge.Cuts") (width 0.2) (tstamp 26c2d915-76fc-40c1-8681-d092047cbfc3))
  (gr_line (start 180 89) (end 160 89) (layer "Edge.Cuts") (width 0.2) (tstamp 5c8d3412-557f-44e4-9fe1-4e83154a113d))
  (gr_line (start 185 89) (end 180 89) (layer "Edge.Cuts") (width 0.2) (tstamp 64dd651a-11df-4927-b5db-eabe50232939))
  (gr_line (start 160 73) (end 173 73) (layer "Edge.Cuts") (width 0.2) (tstamp 7e6a85ab-5104-4e7a-b614-64939b7cf55c))
  (gr_line (start 173 73) (end 181 73) (layer "Edge.Cuts") (width 0.2) (tstamp a2c4f45c-4177-45ef-9a5d-08a9132af8ec))
  (gr_line (start 160 89) (end 156 89) (layer "Edge.Cuts") (width 0.2) (tstamp aa20dc8c-c422-49e1-a73f-a150eac43f3c))
  (gr_line (start 181 73) (end 185 78) (layer "Edge.Cuts") (width 0.2) (tstamp ad479aa3-e9fc-460d-a86f-99fa668c4793))
  (gr_line (start 156 89) (end 156 78) (layer "Edge.Cuts") (width 0.2) (tstamp cadc3ed5-9474-4ef0-9fa5-db51d09de913))

  (segment (start 172.982338 87.2) (end 167.017662 87.2) (width 0.5) (layer "F.Cu") (net 1) (tstamp 3544c881-169f-4655-986e-8a43dd559f92))
  (segment (start 180 80) (end 180 80.182338) (width 0.5) (layer "F.Cu") (net 1) (tstamp 7435f6ec-d062-4bda-9445-2337b943790a))
  (segment (start 167.017662 87.2) (end 160 80.182338) (width 0.5) (layer "F.Cu") (net 1) (tstamp 9abfbb50-d10c-4437-8ad3-0a3e82c2ddc1))
  (segment (start 160 80) (end 160 84) (width 0.5) (layer "F.Cu") (net 1) (tstamp ae67f3f9-c650-4211-97c1-ae7098f01ae5))
  (segment (start 160 84) (end 159 85) (width 0.5) (layer "F.Cu") (net 1) (tstamp e163f9a5-e39f-4505-b9c5-28c47158af47))
  (segment (start 180 80.182338) (end 172.982338 87.2) (width 0.5) (layer "F.Cu") (net 1) (tstamp e47ad2ae-665b-467b-95f9-d6955a533ee3))
  (segment (start 160 80.182338) (end 160 80) (width 0.5) (layer "F.Cu") (net 1) (tstamp e77b5dab-2ee9-4693-97b1-cfcd5c4c5a21))
  (via (at 170 80) (size 0.8) (drill 0.4) (layers "F.Cu" "B.Cu") (net 2) (tstamp a7075fa3-3bb4-480f-9ee4-7f5daa367ab7))
  (segment (start 176.5 80) (end 181.5 85) (width 0.5) (layer "B.Cu") (net 2) (tstamp 5f6b27e5-69d9-47dd-868b-1c6cca9b2cc0))
  (segment (start 170 80) (end 176.5 80) (width 0.5) (layer "B.Cu") (net 2) (tstamp ada0e8a5-a725-423a-bfde-a6528b021ab3))

  (group "" (id 6598de6b-68dc-452d-847e-6fe61956d949)
    (members
      2922d74f-867d-45f8-9730-8e20dbd5ff1b
      3492216b-4b55-4bba-80ef-841e9bd649ef
    )
  )
)
