%TF.GenerationSoftware,KiCad,Pcbnew,(6.0.7)*%
%TF.CreationDate,2022-09-25T12:36:00-06:00*%
%TF.ProjectId,gb-cr1616,67622d63-7231-4363-9136-2e6b69636164,rev?*%
%TF.SameCoordinates,Original*%
%TF.FileFunction,Profile,NP*%
%FSLAX46Y46*%
G04 Gerber Fmt 4.6, Leading zero omitted, Abs format (unit mm)*
G04 Created by KiCad (PCBNEW (6.0.7)) date 2022-09-25 12:36:00*
%MOMM*%
%LPD*%
G01*
G04 APERTURE LIST*
%TA.AperFunction,Profile*%
%ADD10C,0.200000*%
%TD*%
G04 APERTURE END LIST*
D10*
X181000000Y-73000000D02*
X185000000Y-78000000D01*
X173000000Y-73000000D02*
X181000000Y-73000000D01*
X160000000Y-73000000D02*
X173000000Y-73000000D01*
X156000000Y-78000000D02*
X160000000Y-73000000D01*
X160000000Y-89000000D02*
X156000000Y-89000000D01*
X180000000Y-89000000D02*
X160000000Y-89000000D01*
X185000000Y-89000000D02*
X180000000Y-89000000D01*
X185000000Y-78000000D02*
X185000000Y-89000000D01*
X156000000Y-89000000D02*
X156000000Y-78000000D01*
M02*
